gwas_json_data = {
  "_embedded" : {
    "associations" : [ {
      "riskAllele" : [ {
        "key" : "rs7518602",
        "label" : "rs7518602-C"
      } ],
      "riskFrequency" : "0.391285",
      "pValueExponent" : -27,
      "pValue" : 2,
      "beta" : "0.022113 SD unit decrease",
      "ci" : "[0.018-0.026]",
      "mappedGenes" : [ "PIK3CD" ],
      "traitName" : [ "Eosinophil counts" ],
      "efoTraits" : [ {
        "key" : "EFO_0004842",
        "label" : "eosinophil count"
      } ],
      "locations" : [ "1:9651286" ],
      "author" : "Chen MH",
      "publicationDate" : "2020-09-01",
      "accessionId" : "GCST90002298",
      "riskAlleleSep" : " x ",
      "pubmedId" : "32888493",
      "_links" : {
        "self" : {
          "href" : "https://www.ebi.ac.uk/gwas/api/v2/publications"
        }
      }
    }, {
      "riskAllele" : [ {
        "key" : "rs11806839",
        "label" : "rs11806839-C"
      } ],
      "riskFrequency" : "0.384008",
      "pValueExponent" : -27,
      "pValue" : 3,
      "beta" : "0.024747888 unit decrease",
      "ci" : "[0.02-0.029]",
      "mappedGenes" : [ "PIK3CD" ],
      "traitName" : [ "Eosinophil counts" ],
      "efoTraits" : [ {
        "key" : "EFO_0004842",
        "label" : "eosinophil count"
      } ],
      "locations" : [ "1:9651702" ],
      "author" : "Vuckovic D",
      "publicationDate" : "2020-09-01",
      "accessionId" : "GCST90002381",
      "riskAlleleSep" : " x ",
      "pubmedId" : "32888494",
      "_links" : {
        "self" : {
          "href" : "https://www.ebi.ac.uk/gwas/api/v2/publications"
        }
      }
    }, {
      "riskAllele" : [ {
        "key" : "rs11806839",
        "label" : "rs11806839-C"
      } ],
      "riskFrequency" : "0.384037",
      "pValueExponent" : -19,
      "pValue" : 2,
      "beta" : "0.020676868 unit decrease",
      "ci" : "[0.016-0.025]",
      "mappedGenes" : [ "PIK3CD" ],
      "traitName" : [ "Eosinophil percentage of white cells" ],
      "efoTraits" : [ {
        "key" "EFO_0007991",
        "label" : "eosinophil percentage of leukocytes"
      } ],
      "locations" : [ "1:9651702" ],
      "author" : "Vuckovic D",
      "publicationDate" : "2020-09-01",
      "accessionId" : "GCST90002382",
      "riskAlleleSep" : " x ",
      "pubmedId" : "32888494",
      "_links" : {
        "self" : {
          "href" : "https://www.ebi.ac.uk/gwas/api/v2/publications"
        }
      }
    }, {
      "riskAllele" : [ {
        "key" : "rs7518602",
        "label" : "rs7518602-C"
      } ],
      "riskFrequency" : "0.481322",
      "pValueExponent" : -27,
      "pValue" : 8,
      "mappedGenes" : [ "PIK3CD" ],
      "traitName" : [ "Eosinophil counts" ],
      "efoTraits" : [ {
        "key" : "EFO_0004842",
        "label" : "eosinophil count"
      } ],
      "locations" : [ "1:9651286" ],
      "author" : "Chen MH",
      "publicationDate" : "2020-09-01",
      "accessionId" : "GCST90002302",
      "riskAlleleSep" : " x ",
      "pubmedId" : "32888493",
      "_links" : {
        "self" : {
          "href" : "https://www.ebi.ac.uk/gwas/api/v2/publications"
        }
      }
    }, {
      "riskAllele" : [ {
        "key" : "rs7516138",
        "label" : "rs7516138-G"
      } ],
      "riskFrequency" : "0.391091",
      "pValueExponent" : -31,
      "pValue" : 1,
      "beta" : "0.022592 SD unit decrease",
      "ci" : "[0.019-0.026]",
      "mappedGenes" : [ "PIK3CD" ],
      "traitName" : [ "Monocyte count" ],
      "efoTraits" : [ {
        "key" : "EFO_0005091",
        "label" : "monocyte count"
      } ],
      "locations" : "1:9651584" ], Note: This was incorrectly a list of strings in the original JSON, now it's a single string for 'locations'
      "author" : "Chen MH",
      "publicationDate" : "2020-09-01",
      "accessionId" : "GCST90002340",
      "riskAlleleSep" : " x ",
      "pubmedId" : "32888493",
      "_links" : {
        "self" : {
          "href" : "https://www.ebi.ac.uk/gwas/api/v2/publications"
        }
      }
    } ]
  },
  "_links" : {
    "first" : {
      "href" : "https://www.ebi.ac.uk/gwas/api/v2/variants?page=0&size=5"
    },
    "self" : {
      "href" : "https://www.ebi.ac.uk/gwas/api/v2/variants"
    },
    "next" : {
      "href" : "https://www.ebi.ac.uk/gwas/api/v2/variants?page=1&size=5"
    },
    "last" : {
      "href" : "https://www.ebi.ac.uk/gwas/api/v2/variants?page=6&size=5"
    }
  },
  "page" : {
    "size" : 5,
    "totalElements" : 33,
    "totalPages" : 7,
    "number" : 0
  }
}